"id","name","type","front_content","back_content","order_code","extension","course_id","pack_id","online","created_at","updated_at"
"ac4b8810-053b-11e7-9c19-f3ef89cce2e4","黄扬名：工作记忆背后的故事","video","[==video==]  
","### 大纲

- 什么是工作记忆？
- 巴德利老师当年是如何发现工作记忆的？
- 工作记忆对人类的意义？
- 工作记忆如何测量？
- 如何提高工作记忆？","001.001","{""video"": {""url"": ""http://1931.vod.myqcloud.com/1931_975a02e8acb111e69c3755aa1c510bb8.f30.mp4"", ""type"": ""video""}}","0f650ee0-053b-11e7-9c19-f3ef89cce2e4","7783dfb0-053b-11e7-9c19-f3ef89cce2e4",1,"2017-03-10 10:45:50.993+08","2017-03-10 15:59:06.689+08"
"10905300-053c-11e7-9c19-f3ef89cce2e4","陈复加:为你解惑基因背后的秘密","video","[==video==] 
","陈复加，在英国帝国理工学院航天工程系就读硕士，之后经美国空军资助进入牛津大学攻读博士，专业方向是仿生和材料工程，重点研究如何将蜘蛛丝和蚕丝通过仿生材料学研究运用到航天材料中。

博士毕业后，她进入威廉姆斯 F1 车队成为研发工程师，成为该司第一位中国女 F1 工程师，之后她与伙伴联合创办公司 SpaceCot，专门研发可折叠的便携婴儿车。","001.001","{""video"": {""url"": ""http://1931.vod.myqcloud.com/1931_3c77499cfc9a11e6897b4f91b042649d.f30.mp4"", ""type"": ""video""}}","3a7a1c60-053b-11e7-9c19-f3ef89cce2e4","d7709b20-053b-11e7-9c19-f3ef89cce2e4",1,"2017-03-10 10:48:39.217+08","2017-03-10 15:59:22.615+08"
"2e4f0920-e672-11e5-ac74-ad48ac63a061","开智对谈：如何写科幻","video","[==video==]","

兔子瞧（李兆欣）

短篇双语平台「彗星科幻」创始人，科幻评论作者、科幻翻译者，《美国年度最佳科幻小说集》译者，从事电商行业技术管理工作，在全世界发掘自己欣赏的小说。
","001.002","{""video"": {""url"": ""http://1931.vod.myqcloud.com/1931_581d467ca1ad11e59cc863ed97c9457c.f30.mp4"", ""type"": ""video""}}","b99e941d-5369-4c88-a091-71a040bdcb15","56cc4a0f-2eb7-41a5-ac37-6a41a0a85118",1,"2016-03-10 11:42:58.226+08","2016-07-05 11:36:34.13+08"
"2e4bd4d0-e672-11e5-ac74-ad48ac63a061","李兆欣：你现在就该写科幻","video","[==video==]","

兔子瞧（李兆欣）

短篇双语平台「彗星科幻」创始人，科幻评论作者、科幻翻译者，《美国年度最佳科幻小说集》译者，从事电商行业技术管理工作，在全世界发掘自己欣赏的小说。","001.001","{""video"": {""url"": ""http://1931.vod.myqcloud.com/1931_132bbc2ea1ad11e59cc863ed97c9457c.f30.mp4"", ""type"": ""video""}}","b99e941d-5369-4c88-a091-71a040bdcb15","56cc4a0f-2eb7-41a5-ac37-6a41a0a85118",1,"2016-03-10 11:42:58.205+08","2016-07-05 11:36:34.13+08"
"2e574680-e672-11e5-ac74-ad48ac63a061","陈复加：创业如科研，从提出假设到验证假设","video","[==video==]","

陈复加


英国帝国理工学院航天工程系硕士学位。牛津大学博士，仿生和材料方向。
","001.001","{""video"": {""url"": ""http://1931.vod.myqcloud.com/1931_b4ad1e78ba8d11e59cc863ed97c9457c.f30.mp4"", ""type"": ""video""}}","4a3f30f5-8794-4571-bd5a-4f8e1a702336","4f87f707-f8bd-40d8-a9c8-7039f43a870e",1,"2016-03-10 11:42:58.28+08","2016-07-05 11:36:34.13+08"
"2e59b780-e672-11e5-ac74-ad48ac63a061","开智对谈：从科学家到创业者","video","[==video==]","

陈复加

英国帝国理工学院航天工程系硕士学位。牛津大学博士，仿生和材料方向。
","001.002","{""video"": {""url"": ""http://1931.vod.myqcloud.com/1931_f1fec43eba8d11e59cc863ed97c9457c.f30.mp4"", ""type"": ""video""}}","4a3f30f5-8794-4571-bd5a-4f8e1a702336","4f87f707-f8bd-40d8-a9c8-7039f43a870e",1,"2016-03-10 11:42:58.296+08","2016-07-05 11:36:34.131+08"
"0a3a0d10-053d-11e7-9c19-f3ef89cce2e4"," Rufus:开放的力量","video","[==video==] 
","How can we can build an open information age? And why should we do it? Find out with Dr Rufus Pollock, a leading global expert on digital policy, openness and innovation.

- Future of work: will robots take all the jobs - and should we care?
- Freedom: how to preserve freedom in a world of Googles and Facebooks who have the power to shape how we think and act?
- Inequality: concerned about growing inequality and the digital divide?
- Innovation: how can we harness the full power of digital tech for innovation and creativity?
- Economy: Want to build an economy and society fit for the information age?

Open information is the biggest policy opportunity of the 21st century with answers for all of these questions. Openness is central not only to creating a more innovative and transparent society but to creating one which is fair, free, healthy and wealthy.
","001.001","{""video"": {""url"": ""http://1931.vod.myqcloud.com/1931_dedac7e6056811e7897b4f91b042649d.f30.mp4"", ""type"": ""video""}}","5c5875c0-053b-11e7-9c19-f3ef89cce2e4","2644f700-053c-11e7-9c19-f3ef89cce2e4",1,"2017-03-10 10:55:38.082+08","2017-03-10 17:57:15.422+08"
"c433b6a0-0577-11e7-9c19-f3ef89cce2e4","交流答疑","video","[==video==]  
","公开课现场交流答疑","001.002","{""video"": {""url"": ""http://1931.vod.myqcloud.com/1931_6945e156057111e7bdf13da8014deaf6.f30.mp4"", ""type"": ""video""}}","5c5875c0-053b-11e7-9c19-f3ef89cce2e4","2644f700-053c-11e7-9c19-f3ef89cce2e4",1,"2017-03-10 17:56:00.907+08","2017-03-10 17:56:00.907+08"
"c24cd760-0539-11e7-9c19-f3ef89cce2e4","陆易斯：大数据时代营销的迷思与整合","video","[==video==] 
","三个故事带你了解大数据时代的营销变化

- 美图为什么能够成长为一个46亿美元市值的公司？
- 瓜子二手车为什么能够完成2.5亿美元的融资？
- OFO、摩拜、KEEP... 未来将是谁的天下？

内容营销的四个锦囊 & 一个公式

- 从单纯的用户数量到用户带来的销售价值
- 不止集中头部流量精准投放更有效果
- 要像做产品一样做内容营销
- 有直接收益才有直接转化

![](http://ojcp18ifz.bkt.clouddn.com/2017-01-20-WechatIMG237.jpeg)


 案例分析教你 get 营销技能

- 案例详解：产品化的原生广告如何制作？
- 案例详解：如何靠一张内容打天下？

","001.001","{""video"": {""url"": ""http://1931.vod.myqcloud.com/1931_cbea86d0dfc511e6bde4db5b989d480a.f30.mp4"", ""type"": ""video""}}","6d5449d0-0310-11e7-aca3-f1268945b7ed","838b2ae0-0539-11e7-9c19-f3ef89cce2e4",1,"2017-03-10 10:32:08.919+08","2017-03-10 15:55:33.01+08"
"7547c3b0-683d-11e6-ab19-c7bed33dca5e","徐毅斐：从媒介、认知、科技的角度来看未来教育","video","[==video==]","徐毅斐：中科院心理所硕士。先后任职于西门子、中国移动，从事用户体验相关工作。创新工场前30号员工。2011年，创立“斑马骑士”，作品《鲸鱼岛的冬天》和《鲸鱼岛的冬天》被苹果两次首页编辑推荐。","001.001","{""video"": {""url"": ""http://1931.vod.myqcloud.com/1931_4abdbc16191511e6ae501da90cc11209.f10.mp4"", ""type"": ""video""}}","01dd6880-683d-11e6-ab19-c7bed33dca5e","1f5affd0-683d-11e6-ab19-c7bed33dca5e",1,"2016-08-22 15:53:05.131+08","2016-08-23 16:33:15.279+08"
"955e5815-7db9-4004-a53e-e78d43a3756a","王文勇：大时代，小人物","video","[==video==]","

王文勇

美国弗吉尼亚大学达顿商学院 MBA 。现任 Shipston Group 私人股权投资机构的董事总经理。负责管理中国投资，此前在 SABMiller 伦敦总部从事战略规划和收购兼并。在进入金融行业之前，王文勇曾在政府部门工作，担任中国驻美国使馆和联合国印度办公室外交官。","001.001","{""video"": {""url"": ""http://1931.vod.myqcloud.com/1931_12ffe9a4295811e68b8d95dfe8e23354.f30.mp4"", ""type"": ""video""}}","318d830e-3b98-424b-88ce-522c27cf9b1c","c0316846-9604-485e-ac59-03612204f12f",1,"2016-07-11 00:00:00+08","2016-07-11 00:00:00+08"
"1f297310-683e-11e6-ab19-c7bed33dca5e","肖凯：30分钟了解数据可视化","video","[==video==]","肖凯：资深数据挖掘工程师，擅长机器学习和自然语言处理，有多年数据从业经验。原任1号店商务智能部数据挖掘团队高级经理。  已出版技术书籍《数据科学中的R语言》以及《R语言与Bioconductor生物信息学应用》。作为演讲嘉宾参与了多次数据社区活动，包括中国R语言大会、厦门大学数据科学讲座、台湾东吴大学海量数据分析研究中心讲座。","001.001","{""video"": {""url"": ""http://1931.vod.myqcloud.com/1931_9a819d38470d11e5ad6759792160b1a6.f10.mp4"", ""type"": ""video""}}","cfd7f7f0-683d-11e6-ab19-c7bed33dca5e","eac48420-683d-11e6-ab19-c7bed33dca5e",1,"2016-08-22 15:57:50.146+08","2016-08-22 15:57:50.146+08"
"2e517a20-e672-11e5-ac74-ad48ac63a061","金晶：Facebook人才管理面面观","video","[==video==]","
金晶

美国伊利诺伊大学工业组织心理学博士，供职于 Facebook，致力于将大数据应用到企业人才招募与管理。
","001.001","{""video"": {""url"": ""http://1931.vod.myqcloud.com/1931_20b410d6b5fc11e5932aedda4a4b5f47.f30.mp4"", ""type"": ""video""}}","1114967c-58bf-440e-9133-bff2009f6478","c396302d-d64f-4182-a57c-cfe5fa01708d",1,"2016-03-10 11:42:58.242+08","2016-07-05 11:36:34.13+08"
"2e53eb20-e672-11e5-ac74-ad48ac63a061","开智对谈：硅谷公司如何招人育人？","video","[==video==]","

金晶

美国伊利诺伊大学工业组织心理学博士，供职于 Facebook，致力于将大数据应用到企业人才招募与管理。
","001.002","{""video"": {""url"": ""http://1931.vod.myqcloud.com/1931_27d86d8ab5fc11e5932aedda4a4b5f47.f30.mp4"", ""type"": ""video""}}","1114967c-58bf-440e-9133-bff2009f6478","c396302d-d64f-4182-a57c-cfe5fa01708d",1,"2016-03-10 11:42:58.258+08","2016-07-05 11:36:34.13+08"
"b0c72530-6837-11e6-ab19-c7bed33dca5e","陆易斯：从小白到运营型产品大神你要走多久？","video","[==video==]","陆易斯：清华大学新闻与传播学院新媒体硕士毕业，逾十年产品与运营的从业经验。曾服务过的公司有搜狗、阿里巴巴、凡客、京东，其中凡客达人做到300万注册用户，1.5个亿的年销售业绩，曾为去哪儿产品总监，现为投资人。","001.001","{""video"": {""url"": ""http://1931.vod.myqcloud.com/1931_ba3f62c05f0111e594b1033b8e48d19b.f10.mp4"", ""type"": ""video""}}","de4e60a0-6836-11e6-ab19-c7bed33dca5e","47af7570-6837-11e6-ab19-c7bed33dca5e",1,"2016-08-22 15:11:47.971+08","2016-08-22 15:13:53.718+08"
